…
This shows 10 different levels of `branch`…and apparently level `1` is
the root.

``` r
HistLogs %>% count(branch)
```

    #>  # A tibble: 28 x 2
    #>     branch     n
    #>      <int> <int>
    #>   1      1  3774
    #>   2      2  1314
    #>   3      3   480
    #>   4      4   203
    #>   5      5   397
    #>   6      6   128
    #>   7      7    50
    #>   8      8    99
    #>   9      9    13
    #>  10     10    13
    #>  # … with 18 more rows
…
Back to the tutorial…

## Count author

This will count the authors, and we can see there is a problem of
redundant names.

``` r
HistLogs %>% 
  count(author, sort = TRUE)
```

    #>  # A tibble: 207 x 2
    #>     author              n
    #>     <chr>           <int>
    #>   1 hadley           1733
    #>   2 Romain Francois  1559
    #>   3 Romain François  1086
    #>   4 Kirill Müller     899
    #>   5 Lionel Henry      480
    #>   6 Hadley Wickham    280
    #>   7 Mara Averick       42
    #>   8 lindbrook          27
    #>   9 Jim Hester         25
    #>  10 Hiroaki Yutani     16
    #>  # … with 197 more rows
…
HistLogs <- HistLogs %>% 
  mutate(author = case_when(
    stringr::str_detect(
      string = tolower(author), 
         pattern = "hadley") ~ "Hadley Wickham",
    stringr::str_detect(
      string = tolower(author), 
         pattern = "kohske takahashi") ~ "Kohske Takahashi",
    TRUE ~ str_to_title(author)
  ))
# check
HistLogs %>% count(author, sort = TRUE)
```

    #>  # A tibble: 204 x 2
    #>     author              n
    #>     <chr>           <int>
    #>   1 Hadley Wickham   2014
    #>   2 Romain Francois  1559
    #>   3 Romain François  1086
    #>   4 Kirill Müller     899
    #>   5 Lionel Henry      480
    #>   6 Mara Averick       42
    #>   7 Lindbrook          27
    #>   8 Jim Hester         25
    #>   9 Hiroaki Yutani     16
    #>  10 Kevin Ushey        13
    #>  # … with 194 more rows
…
